<svg width="593" height="380" viewBox="0 0 593 380" fill="none" xmlns="http://www.w3.org/2000/svg">
<path d="M17.7878 212.187C-74.6352 70.3585 216.502 0.144728 353.329 1.19707C578.774 -21.1036 663.048 274.644 528.462 349.621C393.876 424.597 110.211 354.016 17.7878 212.187Z" fill="#EEFCFF"/>
</svg>
