<?xml version="1.0" encoding="utf-8"?>
<!-- Generator: Adobe Illustrator 24.2.0, SVG Export Plug-In . SVG Version: 6.00 Build 0)  -->
<svg version="1.1" id="Layer_1" xmlns="http://www.w3.org/2000/svg" xmlns:xlink="http://www.w3.org/1999/xlink" x="0px" y="0px"
	 viewBox="0 0 60 106" style="enable-background:new 0 0 60 106;" xml:space="preserve">
<style type="text/css">
	.st0{fill:#3567e7;}
</style>
<path class="st0" d="M30.1,89.7l-0.9-0.5c-2.6-1.6-24.4-16.4-27-24.4s1.9-34,2.1-35.2l0.2-0.9l0.7-0.5c24.6-13.4,49.2-0.5,50.4,0
	l0.7,0.5l0.2,0.7c0.2,0.9,4.9,24.9,1.4,35.2c-3.5,10.6-25.8,23.9-26.7,24.6L30.1,89.7z M7.6,31c-1.4,8-4,27-2.1,32.6
	c1.9,5.6,17.6,17.1,24.6,22c6.8-4.2,21.8-14.5,24.4-22c2.8-8.4-0.7-28.1-1.4-32.6C48.9,29.2,28,20.3,7.6,31z"/>
<path class="st0" d="M30.1,71.9c-0.2,0-0.5,0-0.7,0c-8.7-0.2-12.9-6.3-13.4-12c-0.7-11,12-25.3,12.4-26l1.2-1.4l1.4,1.4
	c0.5,0.7,14.1,15,13.1,26C43.9,65.8,39.2,71.9,30.1,71.9z M29.9,37.9c-3,3.8-11,14.3-10.3,21.8c0.2,4,3.5,8.4,9.8,8.7
	c8.4,0.2,11-5.2,11.3-8.7C41.6,52.2,33.1,41.8,29.9,37.9z"/>
<polygon class="st0" points="29.6,63.4 22.8,55.2 25.6,52.9 29.9,58 43.2,43.5 45.8,45.8 "/>
</svg>
